…
Then we get the Rxy’s of the actual spawn pairs, and alsothe same number
of Optimal-mate Rxys, and the same number of Random-mate Rxys:

``` r
set.seed(10)  # set a random number seed for reproducibility
AOR <- aor_pairs(actual_pairs, rxys)

# have a look at it:
AOR
#> # A tibble: 225 x 5
#>    Female Male    `Spawn Pairs`   idx     rxy
#>    <chr>  <chr>   <chr>         <int>   <dbl>
#>  1 F_01F  M_14MJ  Actual            1 -0.153 
#>  2 F_01F  M_21MJ  Actual            2 -0.269 
#>  3 F_01F  M_52M   Optimal           1 -0.396 
#>  4 F_01F  M_nb002 Optimal           2 -0.295 
#>  5 F_01F  M_31MJ  Random            1 -0.0130
#>  6 F_01F  M_19MJ  Random            2 -0.0382
#>  7 F_02F  M_46M   Actual            1 -0.0493
#>  8 F_02F  M_41MJ  Actual            2  0.0181
#>  9 F_02F  M_17MJ  Optimal           1 -0.301 
#> 10 F_02F  M_nb002 Optimal           2 -0.345 
#> # … with 215 more rows
```
…
